Date, TT, Partition, Run, Beam Status 
2022-Jul-10 15:42:54, 0x1130f00, EMBC, 427883, STABLE BEAMS
2022-Jul-10 15:45:42, 0x1130f02, EMBC, 427883, STABLE BEAMS
2022-Jul-10 15:48:49, 0x1130f01, EMBC, 427883, STABLE BEAMS
2022-Jul-10 15:51:36, 0x1130f03, EMBC, 427883, STABLE BEAMS
2022-Jul-10 20:11:35, 0x1130f00, EMBC, 427884, STABLE BEAMS
2022-Jul-10 20:14:22, 0x1130f02, EMBC, 427884, STABLE BEAMS
2022-Jul-10 20:17:29, 0x1130f01, EMBC, 427884, STABLE BEAMS
2022-Jul-10 20:20:16, 0x1130f03, EMBC, 427884, STABLE BEAMS
2022-Jul-10 22:25:39, 0x1130f00, EMBC, 427885, STABLE BEAMS
2022-Jul-10 22:28:26, 0x1130f02, EMBC, 427885, STABLE BEAMS
2022-Jul-10 22:31:33, 0x1130f01, EMBC, 427885, STABLE BEAMS
2022-Jul-11 14:11:22, 0x11b0c02, EMBC, 427892, STABLE BEAMS
2022-Jul-11 16:59:24, 0x1130f00, EMBC, 427911, STABLE BEAMS
2022-Jul-11 17:02:12, 0x1130f02, EMBC, 427911, STABLE BEAMS
2022-Jul-11 17:05:19, 0x1130f01, EMBC, 427911, STABLE BEAMS
2022-Jul-12 00:11:56, 0x1130f00, EMBC, 427927, STABLE BEAMS
2022-Jul-12 00:14:43, 0x1130f02, EMBC, 427927, STABLE BEAMS
2022-Jul-12 00:17:50, 0x1130f01, EMBC, 427927, STABLE BEAMS
2022-Jul-12 00:20:36, 0x1130f03, EMBC, 427927, STABLE BEAMS
2022-Jul-21 08:45:33, 0x1130f02, EMBC, 428777, STABLE BEAMS
2022-Jul-21 08:48:27, 0x4180301, FCALA, 428777, STABLE BEAMS
2022-Jul-22 19:53:19, 0x4180301, FCALA, 429018, STABLE BEAMS
2022-Jul-30 00:05:45, 0x4180301, FCALA, 429658, STABLE BEAMS
2022-Jul-31 00:06:32, 0x4180301, FCALA, 429697, STABLE BEAMS
2022-Aug-02 20:10:37, 0x4180d00, FCALA, 430036, STABLE BEAMS
2022-Aug-02 20:11:31, 0x4180301, FCALA, 430036, STABLE BEAMS
2022-Aug-04 03:06:20, 0x4180301, FCALA, 430183, STABLE BEAMS
